ru\itis\javalab\util\MailsGenerator.class
ru\itis\javalab\controllers\StartController.class
ru\itis\javalab\config\ApplicationInitializer.class
ru\itis\javalab\controllers\RegController.class
ru\itis\javalab\services\SignUpServiceFakeImpl.class
ru\itis\javalab\services\UsersService.class
ru\itis\javalab\dto\UserReg.class
ru\itis\javalab\repositories\MessageRepository.class
ru\itis\javalab\validation\ValidName.class
ru\itis\javalab\repositories\CrudRepository.class
ru\itis\javalab\repositories\UsersRepositoryJdbcTemplateImpl.class
ru\itis\javalab\dto\UserDto1.class
ru\itis\javalab\util\EmailUtilImpl.class
ru\itis\javalab\repositories\UsersRepositoryFakeImpl.class
ru\itis\javalab\repositories\MessageRepositoryJdbcTemplateImpl.class
ru\itis\javalab\services\SignUpService.class
ru\itis\javalab\services\SignUpServiceImpl.class
ru\itis\javalab\repositories\DialogRepository.class
ru\itis\javalab\repositories\DialogRepositoryJdbcTemplateImpl.class
ru\itis\javalab\config\ApplicationConfig.class
ru\itis\javalab\config\LocalisationConfig.class
ru\itis\javalab\dto\UserDto.class
ru\itis\javalab\validation\ValidPassword.class
ru\itis\javalab\repositories\UsersRepository.class
ru\itis\javalab\validation\NameValidator.class
ru\itis\javalab\dto\UserReg$UserRegBuilder.class
ru\itis\javalab\dto\UserDto1$UserDto1Builder.class
ru\itis\javalab\validation\PasswordValidator.class
ru\itis\javalab\util\EmailUtil.class
ru\itis\javalab\services\UsersServiceImpl.class
ru\itis\javalab\models\User.class
ru\itis\javalab\models\User$UserBuilder.class
ru\itis\javalab\dto\UserDto$UserDtoBuilder.class
ru\itis\javalab\util\FreemarkerMailsGeneratorImpl.class
ru\itis\javalab\models\User$Status.class
